…
- The variables included are order_id, product_id, add_to_cart_order,
  reordered, user_id, eval_set, order_number, order_dow,
  order_hour_of_day, days_since_prior_order, product_name, aisle_id,
  department_id, aisle, department.

- There are 134 aisles in the dataframe.

``` r
instacart %>%
  group_by(aisle_id) %>%
  summarize(n_obs = n())
```

    ## # A tibble: 134 × 2
    ##    aisle_id n_obs
    ##       <int> <int>
    ##  1        1  2936
    ##  2        2  3873
    ##  3        3 17449
    ##  4        4  9917
    ##  5        5  2905
    ##  6        6  1795
    ##  7        7  1526
    ##  8        8  1501
    ##  9        9  9736
    ## 10       10   448
    ## # ℹ 124 more rows
…
